-- Merging decision tree log ---
manifest
ADDED from /home/android/AndroidStudioProjects/bluepass/app/src/main/AndroidManifest.xml:17:1-263:12
INJECTED from /home/android/AndroidStudioProjects/bluepass/app/src/main/AndroidManifest.xml:17:1-263:12
INJECTED from /home/android/AndroidStudioProjects/bluepass/app/src/main/AndroidManifest.xml:17:1-263:12
INJECTED from /home/android/AndroidStudioProjects/bluepass/app/src/main/AndroidManifest.xml:17:1-263:12
MERGED from /home/android/AndroidStudioProjects/bluepass/app/src/main/AndroidManifest.xml:17:1-263:12
MERGED from [:libraries:Jumble] /home/android/AndroidStudioProjects/bluepass/libraries/Jumble/build/intermediates/manifests/full/release/AndroidManifest.xml:18:1-41:12
MERGED from [:qrcodescanner] /home/android/AndroidStudioProjects/bluepass/qrcodescanner/build/intermediates/manifests/full/release/AndroidManifest.xml:2:1-19:12
MERGED from [:panicmodule] /home/android/AndroidStudioProjects/bluepass/panicmodule/build/intermediates/manifests/full/release/AndroidManifest.xml:2:1-19:12
MERGED from [com.android.support:multidex:1.0.2] /home/android/.gradle/caches/transforms-1/files-1.1/multidex-1.0.2.aar/4e31cc8609217b0a4b0d2c8968969a23/AndroidManifest.xml:17:1-22:12
MERGED from [:noobcameraflash] /home/android/AndroidStudioProjects/bluepass/noobcameraflash/build/intermediates/manifests/full/release/AndroidManifest.xml:2:1-23:12
MERGED from [com.android.support:design:26.1.0] /home/android/.gradle/caches/transforms-1/files-1.1/design-26.1.0.aar/a2aafce8f7025362fb22c0eddf72d073/AndroidManifest.xml:17:1-31:12
MERGED from [com.github.Abhi347:LumberJack:0.0.3] /home/android/.gradle/caches/transforms-1/files-1.1/LumberJack-0.0.3.aar/66e6f9b78339e0f73d8216c6bce17e58/AndroidManifest.xml:2:1-17:12
MERGED from [com.android.support:appcompat-v7:26.1.0] /home/android/.gradle/caches/transforms-1/files-1.1/appcompat-v7-26.1.0.aar/43b7c7dcc619cf125407e6931ff97bb5/AndroidManifest.xml:17:1-31:12
MERGED from [com.android.support:cardview-v7:26.1.0] /home/android/.gradle/caches/transforms-1/files-1.1/cardview-v7-26.1.0.aar/73a6d0abfe92765a79f80e6771a4b814/AndroidManifest.xml:17:1-28:12
MERGED from [com.android.support:palette-v7:26.1.0] /home/android/.gradle/caches/transforms-1/files-1.1/palette-v7-26.1.0.aar/68d73ee8c435b5cd01b21ecacd07b351/AndroidManifest.xml:17:1-28:12
MERGED from [com.android.support:recyclerview-v7:26.1.0] /home/android/.gradle/caches/transforms-1/files-1.1/recyclerview-v7-26.1.0.aar/056a83d7d76138ad6e2efd32da4e7233/AndroidManifest.xml:17:1-28:12
MERGED from [com.android.volley:volley:1.0.0] /home/android/.gradle/caches/transforms-1/files-1.1/volley-1.0.0.aar/70217509e9abf144fbe4424ed12721a0/AndroidManifest.xml:2:1-11:12
MERGED from [com.android.support.constraint:constraint-layout:1.0.2] /home/android/.gradle/caches/transforms-1/files-1.1/constraint-layout-1.0.2.aar/2ddc8570c9d23d8807d3cf353b26b73e/AndroidManifest.xml:2:1-11:12
MERGED from [com.google.android.gms:play-services-plus:12.0.0] /home/android/.gradle/caches/transforms-1/files-1.1/play-services-plus-12.0.0.aar/1e4dccdc035d9a8d3abdd6a73a92c6ec/AndroidManifest.xml:17:1-24:12
MERGED from [com.android.support:transition:26.1.0] /home/android/.gradle/caches/transforms-1/files-1.1/transition-26.1.0.aar/2e1f32dcf8cb49e15eaf68d3ac97cf40/AndroidManifest.xml:17:1-28:12
MERGED from [com.google.android.gms:play-services-base:12.0.0] /home/android/.gradle/caches/transforms-1/files-1.1/play-services-base-12.0.0.aar/dcd948de834e1f60d4fc72ec020caf46/AndroidManifest.xml:17:1-29:12
MERGED from [com.google.android.gms:play-services-tasks:12.0.0] /home/android/.gradle/caches/transforms-1/files-1.1/play-services-tasks-12.0.0.aar/97e28ddb8b76ac7293ba2c44b65ffb0a/AndroidManifest.xml:2:1-9:12
MERGED from [com.google.android.gms:play-services-basement:12.0.0] /home/android/.gradle/caches/transforms-1/files-1.1/play-services-basement-12.0.0.aar/b38055671a4aadb825853645bd4c5c28/AndroidManifest.xml:17:1-28:12
MERGED from [com.android.support:support-v4:26.1.0] /home/android/.gradle/caches/transforms-1/files-1.1/support-v4-26.1.0.aar/06cf890f15021b61d6433b58ecb08e7f/AndroidManifest.xml:17:1-31:12
MERGED from [com.android.support:support-fragment:26.1.0] /home/android/.gradle/caches/transforms-1/files-1.1/support-fragment-26.1.0.aar/aa0da0209e369b85e9b9024b72ba649a/AndroidManifest.xml:17:1-31:12
MERGED from [com.android.support:support-core-utils:26.1.0] /home/android/.gradle/caches/transforms-1/files-1.1/support-core-utils-26.1.0.aar/42ab4a0c7211275ea510a830cea7d6cd/AndroidManifest.xml:17:1-31:12
MERGED from [com.android.support:animated-vector-drawable:26.1.0] /home/android/.gradle/caches/transforms-1/files-1.1/animated-vector-drawable-26.1.0.aar/4de28053eff3624078796ada9660b56f/AndroidManifest.xml:17:1-28:12
MERGED from [com.android.support:support-core-ui:26.1.0] /home/android/.gradle/caches/transforms-1/files-1.1/support-core-ui-26.1.0.aar/7fc2a1c37360753759d833aa11eaafc3/AndroidManifest.xml:17:1-31:12
MERGED from [com.android.support:support-media-compat:26.1.0] /home/android/.gradle/caches/transforms-1/files-1.1/support-media-compat-26.1.0.aar/d7b2c9f6c47b8f08ac2e73df43f52894/AndroidManifest.xml:17:1-31:12
MERGED from [com.android.support:support-vector-drawable:26.1.0] /home/android/.gradle/caches/transforms-1/files-1.1/support-vector-drawable-26.1.0.aar/d8176108fb7d9e26d36a39af3cfeef56/AndroidManifest.xml:17:1-28:12
MERGED from [com.android.support:support-compat:26.1.0] /home/android/.gradle/caches/transforms-1/files-1.1/support-compat-26.1.0.aar/f9d42748f382499e0760ed1ae4578d8f/AndroidManifest.xml:17:1-31:12
MERGED from [com.google.android.gms:play-services-plus-license:12.0.0] /home/android/.gradle/caches/transforms-1/files-1.1/play-services-plus-license-12.0.0.aar/77d152e79d7c2be61e47d042cb7f4637/AndroidManifest.xml:2:1-8:12
MERGED from [android.arch.lifecycle:runtime:1.0.0] /home/android/.gradle/caches/transforms-1/files-1.1/runtime-1.0.0.aar/b408ee810f04b3bad259b887fb92a3e0/AndroidManifest.xml:17:1-30:12
MERGED from [com.google.android.gms:play-services-base-license:12.0.0] /home/android/.gradle/caches/transforms-1/files-1.1/play-services-base-license-12.0.0.aar/1d7a944169d2ec43a305a23b2cb3f219/AndroidManifest.xml:2:1-8:12
MERGED from [com.google.android.gms:play-services-basement-license:12.0.0] /home/android/.gradle/caches/transforms-1/files-1.1/play-services-basement-license-12.0.0.aar/b6f4ef915c6c1746289dfec84b0aca77/AndroidManifest.xml:2:1-8:12
MERGED from [com.google.android.gms:play-services-tasks-license:12.0.0] /home/android/.gradle/caches/transforms-1/files-1.1/play-services-tasks-license-12.0.0.aar/1308dadd594472be044b36d96cb1d34f/AndroidManifest.xml:2:1-8:12
INJECTED from /home/android/AndroidStudioProjects/bluepass/app/src/free/AndroidManifest.xml:20:1-29:12
INJECTED from /home/android/AndroidStudioProjects/bluepass/app/src/free/AndroidManifest.xml:20:1-29:12
INJECTED from /home/android/AndroidStudioProjects/bluepass/app/src/free/AndroidManifest.xml:20:1-29:12
	package
		ADDED from /home/android/AndroidStudioProjects/bluepass/app/src/main/AndroidManifest.xml:18:5-36
		INJECTED from /home/android/AndroidStudioProjects/bluepass/app/src/main/AndroidManifest.xml
		ADDED from /home/android/AndroidStudioProjects/bluepass/app/src/main/AndroidManifest.xml:18:5-36
		INJECTED from /home/android/AndroidStudioProjects/bluepass/app/src/free/AndroidManifest.xml
	android:versionName
		INJECTED from /home/android/AndroidStudioProjects/bluepass/app/src/main/AndroidManifest.xml
		ADDED from /home/android/AndroidStudioProjects/bluepass/app/src/main/AndroidManifest.xml:17:1-263:12
		INJECTED from /home/android/AndroidStudioProjects/bluepass/app/src/free/AndroidManifest.xml
	android:versionCode
		INJECTED from /home/android/AndroidStudioProjects/bluepass/app/src/main/AndroidManifest.xml
		ADDED from /home/android/AndroidStudioProjects/bluepass/app/src/main/AndroidManifest.xml:17:1-263:12
		INJECTED from /home/android/AndroidStudioProjects/bluepass/app/src/free/AndroidManifest.xml
	xmlns:android
		ADDED from /home/android/AndroidStudioProjects/bluepass/app/src/main/AndroidManifest.xml:17:11-69
	android:installLocation
		ADDED from /home/android/AndroidStudioProjects/bluepass/app/src/main/AndroidManifest.xml:19:5-35
		ADDED from /home/android/AndroidStudioProjects/bluepass/app/src/main/AndroidManifest.xml:19:5-35
uses-feature#android.hardware.microphone
ADDED from /home/android/AndroidStudioProjects/bluepass/app/src/main/AndroidManifest.xml:20:5-22:36
	android:required
		ADDED from /home/android/AndroidStudioProjects/bluepass/app/src/main/AndroidManifest.xml:22:9-33
	android:name
		ADDED from /home/android/AndroidStudioProjects/bluepass/app/src/main/AndroidManifest.xml:21:9-51
uses-permission#android.permission.READ_PHONE_STATE
ADDED from /home/android/AndroidStudioProjects/bluepass/app/src/main/AndroidManifest.xml:24:5-75
	android:name
		ADDED from /home/android/AndroidStudioProjects/bluepass/app/src/main/AndroidManifest.xml:24:22-72
uses-permission#android.permission.RECORD_AUDIO
ADDED from /home/android/AndroidStudioProjects/bluepass/app/src/main/AndroidManifest.xml:25:5-71
	android:name
		ADDED from /home/android/AndroidStudioProjects/bluepass/app/src/main/AndroidManifest.xml:25:22-68
uses-permission#android.permission.INTERNET
ADDED from /home/android/AndroidStudioProjects/bluepass/app/src/main/AndroidManifest.xml:26:5-67
MERGED from [:libraries:Jumble] /home/android/AndroidStudioProjects/bluepass/libraries/Jumble/build/intermediates/manifests/full/release/AndroidManifest.xml:27:5-67
MERGED from [:libraries:Jumble] /home/android/AndroidStudioProjects/bluepass/libraries/Jumble/build/intermediates/manifests/full/release/AndroidManifest.xml:27:5-67
	android:name
		ADDED from /home/android/AndroidStudioProjects/bluepass/app/src/main/AndroidManifest.xml:26:22-64
uses-permission#android.permission.READ_EXTERNAL_STORAGE
ADDED from /home/android/AndroidStudioProjects/bluepass/app/src/main/AndroidManifest.xml:27:5-80
	android:name
		ADDED from /home/android/AndroidStudioProjects/bluepass/app/src/main/AndroidManifest.xml:27:22-77
uses-permission#android.permission.WRITE_EXTERNAL_STORAGE
ADDED from /home/android/AndroidStudioProjects/bluepass/app/src/main/AndroidManifest.xml:28:5-81
	android:name
		ADDED from /home/android/AndroidStudioProjects/bluepass/app/src/main/AndroidManifest.xml:28:22-78
uses-permission#android.permission.WAKE_LOCK
ADDED from /home/android/AndroidStudioProjects/bluepass/app/src/main/AndroidManifest.xml:29:5-68
	android:name
		ADDED from /home/android/AndroidStudioProjects/bluepass/app/src/main/AndroidManifest.xml:29:22-65
uses-permission#android.permission.SYSTEM_ALERT_WINDOW
ADDED from /home/android/AndroidStudioProjects/bluepass/app/src/main/AndroidManifest.xml:30:5-78
	android:name
		ADDED from /home/android/AndroidStudioProjects/bluepass/app/src/main/AndroidManifest.xml:30:22-75
uses-permission#android.permission.VIBRATE
ADDED from /home/android/AndroidStudioProjects/bluepass/app/src/main/AndroidManifest.xml:31:5-66
	android:name
		ADDED from /home/android/AndroidStudioProjects/bluepass/app/src/main/AndroidManifest.xml:31:22-63
uses-permission#android.permission.MODIFY_AUDIO_SETTINGS
ADDED from /home/android/AndroidStudioProjects/bluepass/app/src/main/AndroidManifest.xml:32:5-80
	android:name
		ADDED from /home/android/AndroidStudioProjects/bluepass/app/src/main/AndroidManifest.xml:32:22-77
uses-permission#android.permission.BLUETOOTH
ADDED from /home/android/AndroidStudioProjects/bluepass/app/src/main/AndroidManifest.xml:33:5-68
	android:name
		ADDED from /home/android/AndroidStudioProjects/bluepass/app/src/main/AndroidManifest.xml:33:22-65
uses-permission#android.permission.BROADCAST_STICKY
ADDED from /home/android/AndroidStudioProjects/bluepass/app/src/main/AndroidManifest.xml:34:5-75
	android:name
		ADDED from /home/android/AndroidStudioProjects/bluepass/app/src/main/AndroidManifest.xml:34:22-72
uses-permission#android.permission.ACCESS_FINE_LOCATION
ADDED from /home/android/AndroidStudioProjects/bluepass/app/src/main/AndroidManifest.xml:35:5-79
	android:name
		ADDED from /home/android/AndroidStudioProjects/bluepass/app/src/main/AndroidManifest.xml:35:22-76
uses-permission#android.permission.SEND_SMS
ADDED from /home/android/AndroidStudioProjects/bluepass/app/src/main/AndroidManifest.xml:36:5-67
	android:name
		ADDED from /home/android/AndroidStudioProjects/bluepass/app/src/main/AndroidManifest.xml:36:22-64
uses-permission#android.permission.CAMERA
ADDED from /home/android/AndroidStudioProjects/bluepass/app/src/main/AndroidManifest.xml:37:5-65
MERGED from [:noobcameraflash] /home/android/AndroidStudioProjects/bluepass/noobcameraflash/build/intermediates/manifests/full/release/AndroidManifest.xml:18:5-65
MERGED from [:noobcameraflash] /home/android/AndroidStudioProjects/bluepass/noobcameraflash/build/intermediates/manifests/full/release/AndroidManifest.xml:18:5-65
	android:name
		ADDED from /home/android/AndroidStudioProjects/bluepass/app/src/main/AndroidManifest.xml:37:22-62
uses-permission#android.permission.READ_PROFILE
ADDED from /home/android/AndroidStudioProjects/bluepass/app/src/main/AndroidManifest.xml:38:5-71
	android:name
		ADDED from /home/android/AndroidStudioProjects/bluepass/app/src/main/AndroidManifest.xml:38:22-68
uses-permission#android.permission.GET_ACCOUNTS
ADDED from /home/android/AndroidStudioProjects/bluepass/app/src/main/AndroidManifest.xml:39:5-71
	android:name
		ADDED from /home/android/AndroidStudioProjects/bluepass/app/src/main/AndroidManifest.xml:39:22-68
uses-permission#android.permission.AUTHENTICATE_ACCOUNTS
ADDED from /home/android/AndroidStudioProjects/bluepass/app/src/main/AndroidManifest.xml:40:5-80
	android:name
		ADDED from /home/android/AndroidStudioProjects/bluepass/app/src/main/AndroidManifest.xml:40:22-77
uses-feature#android.permission.WRITE_CONTACTS
ADDED from /home/android/AndroidStudioProjects/bluepass/app/src/main/AndroidManifest.xml:44:5-46:36
	android:required
		ADDED from /home/android/AndroidStudioProjects/bluepass/app/src/main/AndroidManifest.xml:46:9-33
	android:name
		ADDED from /home/android/AndroidStudioProjects/bluepass/app/src/main/AndroidManifest.xml:45:9-57
uses-permission#android.permission.FLASHLIGHT
ADDED from /home/android/AndroidStudioProjects/bluepass/app/src/main/AndroidManifest.xml:48:5-69
	android:name
		ADDED from /home/android/AndroidStudioProjects/bluepass/app/src/main/AndroidManifest.xml:48:22-66
uses-permission#android.permission.ACCESS_COARSE_LOCATION
ADDED from /home/android/AndroidStudioProjects/bluepass/app/src/main/AndroidManifest.xml:49:5-81
	android:name
		ADDED from /home/android/AndroidStudioProjects/bluepass/app/src/main/AndroidManifest.xml:49:22-78
uses-permission#android.permission.ACCESS_NETWORK_STATE
ADDED from /home/android/AndroidStudioProjects/bluepass/app/src/main/AndroidManifest.xml:50:5-79
MERGED from [:libraries:Jumble] /home/android/AndroidStudioProjects/bluepass/libraries/Jumble/build/intermediates/manifests/full/release/AndroidManifest.xml:28:5-79
MERGED from [:libraries:Jumble] /home/android/AndroidStudioProjects/bluepass/libraries/Jumble/build/intermediates/manifests/full/release/AndroidManifest.xml:28:5-79
	android:name
		ADDED from /home/android/AndroidStudioProjects/bluepass/app/src/main/AndroidManifest.xml:50:22-76
uses-feature#android.hardware.camera
ADDED from /home/android/AndroidStudioProjects/bluepass/app/src/main/AndroidManifest.xml:52:5-54:36
	android:required
		ADDED from /home/android/AndroidStudioProjects/bluepass/app/src/main/AndroidManifest.xml:54:9-33
	android:name
		ADDED from /home/android/AndroidStudioProjects/bluepass/app/src/main/AndroidManifest.xml:53:9-47
uses-feature#android.hardware.sensor.accelerometer
ADDED from /home/android/AndroidStudioProjects/bluepass/app/src/main/AndroidManifest.xml:55:5-57:35
	android:required
		ADDED from /home/android/AndroidStudioProjects/bluepass/app/src/main/AndroidManifest.xml:57:9-32
	android:name
		ADDED from /home/android/AndroidStudioProjects/bluepass/app/src/main/AndroidManifest.xml:56:9-61
uses-feature#android.hardware.camera.flash
ADDED from /home/android/AndroidStudioProjects/bluepass/app/src/main/AndroidManifest.xml:58:5-60:36
	android:required
		ADDED from /home/android/AndroidStudioProjects/bluepass/app/src/main/AndroidManifest.xml:60:9-33
	android:name
		ADDED from /home/android/AndroidStudioProjects/bluepass/app/src/main/AndroidManifest.xml:59:9-53
uses-feature#android.hardware.camera.autofocus
ADDED from /home/android/AndroidStudioProjects/bluepass/app/src/main/AndroidManifest.xml:61:5-63:36
	android:required
		ADDED from /home/android/AndroidStudioProjects/bluepass/app/src/main/AndroidManifest.xml:63:9-33
	android:name
		ADDED from /home/android/AndroidStudioProjects/bluepass/app/src/main/AndroidManifest.xml:62:9-57
uses-feature#android.permission.READ_CONTACTS
ADDED from /home/android/AndroidStudioProjects/bluepass/app/src/main/AndroidManifest.xml:64:5-66:36
	android:required
		ADDED from /home/android/AndroidStudioProjects/bluepass/app/src/main/AndroidManifest.xml:66:9-33
	android:name
		ADDED from /home/android/AndroidStudioProjects/bluepass/app/src/main/AndroidManifest.xml:65:9-56
application
ADDED from /home/android/AndroidStudioProjects/bluepass/app/src/main/AndroidManifest.xml:68:5-261:19
MERGED from /home/android/AndroidStudioProjects/bluepass/app/src/main/AndroidManifest.xml:68:5-261:19
MERGED from /home/android/AndroidStudioProjects/bluepass/app/src/main/AndroidManifest.xml:68:5-261:19
MERGED from [:libraries:Jumble] /home/android/AndroidStudioProjects/bluepass/libraries/Jumble/build/intermediates/manifests/full/release/AndroidManifest.xml:30:5-39:19
MERGED from [:libraries:Jumble] /home/android/AndroidStudioProjects/bluepass/libraries/Jumble/build/intermediates/manifests/full/release/AndroidManifest.xml:30:5-39:19
MERGED from [:qrcodescanner] /home/android/AndroidStudioProjects/bluepass/qrcodescanner/build/intermediates/manifests/full/release/AndroidManifest.xml:11:5-17:19
MERGED from [:qrcodescanner] /home/android/AndroidStudioProjects/bluepass/qrcodescanner/build/intermediates/manifests/full/release/AndroidManifest.xml:11:5-17:19
MERGED from [:panicmodule] /home/android/AndroidStudioProjects/bluepass/panicmodule/build/intermediates/manifests/full/release/AndroidManifest.xml:11:5-17:19
MERGED from [:panicmodule] /home/android/AndroidStudioProjects/bluepass/panicmodule/build/intermediates/manifests/full/release/AndroidManifest.xml:11:5-17:19
MERGED from [:noobcameraflash] /home/android/AndroidStudioProjects/bluepass/noobcameraflash/build/intermediates/manifests/full/release/AndroidManifest.xml:20:5-21:19
MERGED from [:noobcameraflash] /home/android/AndroidStudioProjects/bluepass/noobcameraflash/build/intermediates/manifests/full/release/AndroidManifest.xml:20:5-21:19
MERGED from [com.android.support:design:26.1.0] /home/android/.gradle/caches/transforms-1/files-1.1/design-26.1.0.aar/a2aafce8f7025362fb22c0eddf72d073/AndroidManifest.xml:25:5-29:19
MERGED from [com.android.support:design:26.1.0] /home/android/.gradle/caches/transforms-1/files-1.1/design-26.1.0.aar/a2aafce8f7025362fb22c0eddf72d073/AndroidManifest.xml:25:5-29:19
MERGED from [com.github.Abhi347:LumberJack:0.0.3] /home/android/.gradle/caches/transforms-1/files-1.1/LumberJack-0.0.3.aar/66e6f9b78339e0f73d8216c6bce17e58/AndroidManifest.xml:11:5-15:19
MERGED from [com.github.Abhi347:LumberJack:0.0.3] /home/android/.gradle/caches/transforms-1/files-1.1/LumberJack-0.0.3.aar/66e6f9b78339e0f73d8216c6bce17e58/AndroidManifest.xml:11:5-15:19
MERGED from [com.android.support:appcompat-v7:26.1.0] /home/android/.gradle/caches/transforms-1/files-1.1/appcompat-v7-26.1.0.aar/43b7c7dcc619cf125407e6931ff97bb5/AndroidManifest.xml:25:5-29:19
MERGED from [com.android.support:appcompat-v7:26.1.0] /home/android/.gradle/caches/transforms-1/files-1.1/appcompat-v7-26.1.0.aar/43b7c7dcc619cf125407e6931ff97bb5/AndroidManifest.xml:25:5-29:19
MERGED from [com.android.support:cardview-v7:26.1.0] /home/android/.gradle/caches/transforms-1/files-1.1/cardview-v7-26.1.0.aar/73a6d0abfe92765a79f80e6771a4b814/AndroidManifest.xml:22:5-26:19
MERGED from [com.android.support:cardview-v7:26.1.0] /home/android/.gradle/caches/transforms-1/files-1.1/cardview-v7-26.1.0.aar/73a6d0abfe92765a79f80e6771a4b814/AndroidManifest.xml:22:5-26:19
MERGED from [com.android.support:palette-v7:26.1.0] /home/android/.gradle/caches/transforms-1/files-1.1/palette-v7-26.1.0.aar/68d73ee8c435b5cd01b21ecacd07b351/AndroidManifest.xml:22:5-26:19
MERGED from [com.android.support:palette-v7:26.1.0] /home/android/.gradle/caches/transforms-1/files-1.1/palette-v7-26.1.0.aar/68d73ee8c435b5cd01b21ecacd07b351/AndroidManifest.xml:22:5-26:19
MERGED from [com.android.support:recyclerview-v7:26.1.0] /home/android/.gradle/caches/transforms-1/files-1.1/recyclerview-v7-26.1.0.aar/056a83d7d76138ad6e2efd32da4e7233/AndroidManifest.xml:22:5-26:19
MERGED from [com.android.support:recyclerview-v7:26.1.0] /home/android/.gradle/caches/transforms-1/files-1.1/recyclerview-v7-26.1.0.aar/056a83d7d76138ad6e2efd32da4e7233/AndroidManifest.xml:22:5-26:19
MERGED from [com.android.volley:volley:1.0.0] /home/android/.gradle/caches/transforms-1/files-1.1/volley-1.0.0.aar/70217509e9abf144fbe4424ed12721a0/AndroidManifest.xml:9:5-20
MERGED from [com.android.volley:volley:1.0.0] /home/android/.gradle/caches/transforms-1/files-1.1/volley-1.0.0.aar/70217509e9abf144fbe4424ed12721a0/AndroidManifest.xml:9:5-20
MERGED from [com.android.support.constraint:constraint-layout:1.0.2] /home/android/.gradle/caches/transforms-1/files-1.1/constraint-layout-1.0.2.aar/2ddc8570c9d23d8807d3cf353b26b73e/AndroidManifest.xml:9:5-20
MERGED from [com.android.support.constraint:constraint-layout:1.0.2] /home/android/.gradle/caches/transforms-1/files-1.1/constraint-layout-1.0.2.aar/2ddc8570c9d23d8807d3cf353b26b73e/AndroidManifest.xml:9:5-20
MERGED from [com.google.android.gms:play-services-plus:12.0.0] /home/android/.gradle/caches/transforms-1/files-1.1/play-services-plus-12.0.0.aar/1e4dccdc035d9a8d3abdd6a73a92c6ec/AndroidManifest.xml:22:5-20
MERGED from [com.google.android.gms:play-services-plus:12.0.0] /home/android/.gradle/caches/transforms-1/files-1.1/play-services-plus-12.0.0.aar/1e4dccdc035d9a8d3abdd6a73a92c6ec/AndroidManifest.xml:22:5-20
MERGED from [com.android.support:transition:26.1.0] /home/android/.gradle/caches/transforms-1/files-1.1/transition-26.1.0.aar/2e1f32dcf8cb49e15eaf68d3ac97cf40/AndroidManifest.xml:22:5-26:19
MERGED from [com.android.support:transition:26.1.0] /home/android/.gradle/caches/transforms-1/files-1.1/transition-26.1.0.aar/2e1f32dcf8cb49e15eaf68d3ac97cf40/AndroidManifest.xml:22:5-26:19
MERGED from [com.google.android.gms:play-services-base:12.0.0] /home/android/.gradle/caches/transforms-1/files-1.1/play-services-base-12.0.0.aar/dcd948de834e1f60d4fc72ec020caf46/AndroidManifest.xml:22:5-27:19
MERGED from [com.google.android.gms:play-services-base:12.0.0] /home/android/.gradle/caches/transforms-1/files-1.1/play-services-base-12.0.0.aar/dcd948de834e1f60d4fc72ec020caf46/AndroidManifest.xml:22:5-27:19
MERGED from [com.google.android.gms:play-services-tasks:12.0.0] /home/android/.gradle/caches/transforms-1/files-1.1/play-services-tasks-12.0.0.aar/97e28ddb8b76ac7293ba2c44b65ffb0a/AndroidManifest.xml:7:5-20
MERGED from [com.google.android.gms:play-services-tasks:12.0.0] /home/android/.gradle/caches/transforms-1/files-1.1/play-services-tasks-12.0.0.aar/97e28ddb8b76ac7293ba2c44b65ffb0a/AndroidManifest.xml:7:5-20
MERGED from [com.google.android.gms:play-services-basement:12.0.0] /home/android/.gradle/caches/transforms-1/files-1.1/play-services-basement-12.0.0.aar/b38055671a4aadb825853645bd4c5c28/AndroidManifest.xml:22:5-26:19
MERGED from [com.google.android.gms:play-services-basement:12.0.0] /home/android/.gradle/caches/transforms-1/files-1.1/play-services-basement-12.0.0.aar/b38055671a4aadb825853645bd4c5c28/AndroidManifest.xml:22:5-26:19
MERGED from [com.android.support:support-v4:26.1.0] /home/android/.gradle/caches/transforms-1/files-1.1/support-v4-26.1.0.aar/06cf890f15021b61d6433b58ecb08e7f/AndroidManifest.xml:25:5-29:19
MERGED from [com.android.support:support-v4:26.1.0] /home/android/.gradle/caches/transforms-1/files-1.1/support-v4-26.1.0.aar/06cf890f15021b61d6433b58ecb08e7f/AndroidManifest.xml:25:5-29:19
MERGED from [com.android.support:support-fragment:26.1.0] /home/android/.gradle/caches/transforms-1/files-1.1/support-fragment-26.1.0.aar/aa0da0209e369b85e9b9024b72ba649a/AndroidManifest.xml:25:5-29:19
MERGED from [com.android.support:support-fragment:26.1.0] /home/android/.gradle/caches/transforms-1/files-1.1/support-fragment-26.1.0.aar/aa0da0209e369b85e9b9024b72ba649a/AndroidManifest.xml:25:5-29:19
MERGED from [com.android.support:support-core-utils:26.1.0] /home/android/.gradle/caches/transforms-1/files-1.1/support-core-utils-26.1.0.aar/42ab4a0c7211275ea510a830cea7d6cd/AndroidManifest.xml:25:5-29:19
MERGED from [com.android.support:support-core-utils:26.1.0] /home/android/.gradle/caches/transforms-1/files-1.1/support-core-utils-26.1.0.aar/42ab4a0c7211275ea510a830cea7d6cd/AndroidManifest.xml:25:5-29:19
MERGED from [com.android.support:animated-vector-drawable:26.1.0] /home/android/.gradle/caches/transforms-1/files-1.1/animated-vector-drawable-26.1.0.aar/4de28053eff3624078796ada9660b56f/AndroidManifest.xml:22:5-26:19
MERGED from [com.android.support:animated-vector-drawable:26.1.0] /home/android/.gradle/caches/transforms-1/files-1.1/animated-vector-drawable-26.1.0.aar/4de28053eff3624078796ada9660b56f/AndroidManifest.xml:22:5-26:19
MERGED from [com.android.support:support-core-ui:26.1.0] /home/android/.gradle/caches/transforms-1/files-1.1/support-core-ui-26.1.0.aar/7fc2a1c37360753759d833aa11eaafc3/AndroidManifest.xml:25:5-29:19
MERGED from [com.android.support:support-core-ui:26.1.0] /home/android/.gradle/caches/transforms-1/files-1.1/support-core-ui-26.1.0.aar/7fc2a1c37360753759d833aa11eaafc3/AndroidManifest.xml:25:5-29:19
MERGED from [com.android.support:support-media-compat:26.1.0] /home/android/.gradle/caches/transforms-1/files-1.1/support-media-compat-26.1.0.aar/d7b2c9f6c47b8f08ac2e73df43f52894/AndroidManifest.xml:25:5-29:19
MERGED from [com.android.support:support-media-compat:26.1.0] /home/android/.gradle/caches/transforms-1/files-1.1/support-media-compat-26.1.0.aar/d7b2c9f6c47b8f08ac2e73df43f52894/AndroidManifest.xml:25:5-29:19
MERGED from [com.android.support:support-vector-drawable:26.1.0] /home/android/.gradle/caches/transforms-1/files-1.1/support-vector-drawable-26.1.0.aar/d8176108fb7d9e26d36a39af3cfeef56/AndroidManifest.xml:22:5-26:19
MERGED from [com.android.support:support-vector-drawable:26.1.0] /home/android/.gradle/caches/transforms-1/files-1.1/support-vector-drawable-26.1.0.aar/d8176108fb7d9e26d36a39af3cfeef56/AndroidManifest.xml:22:5-26:19
MERGED from [com.android.support:support-compat:26.1.0] /home/android/.gradle/caches/transforms-1/files-1.1/support-compat-26.1.0.aar/f9d42748f382499e0760ed1ae4578d8f/AndroidManifest.xml:25:5-29:19
MERGED from [com.android.support:support-compat:26.1.0] /home/android/.gradle/caches/transforms-1/files-1.1/support-compat-26.1.0.aar/f9d42748f382499e0760ed1ae4578d8f/AndroidManifest.xml:25:5-29:19
MERGED from [com.google.android.gms:play-services-plus-license:12.0.0] /home/android/.gradle/caches/transforms-1/files-1.1/play-services-plus-license-12.0.0.aar/77d152e79d7c2be61e47d042cb7f4637/AndroidManifest.xml:5:5-6:19
MERGED from [com.google.android.gms:play-services-plus-license:12.0.0] /home/android/.gradle/caches/transforms-1/files-1.1/play-services-plus-license-12.0.0.aar/77d152e79d7c2be61e47d042cb7f4637/AndroidManifest.xml:5:5-6:19
MERGED from [android.arch.lifecycle:runtime:1.0.0] /home/android/.gradle/caches/transforms-1/files-1.1/runtime-1.0.0.aar/b408ee810f04b3bad259b887fb92a3e0/AndroidManifest.xml:24:5-28:19
MERGED from [android.arch.lifecycle:runtime:1.0.0] /home/android/.gradle/caches/transforms-1/files-1.1/runtime-1.0.0.aar/b408ee810f04b3bad259b887fb92a3e0/AndroidManifest.xml:24:5-28:19
MERGED from [com.google.android.gms:play-services-base-license:12.0.0] /home/android/.gradle/caches/transforms-1/files-1.1/play-services-base-license-12.0.0.aar/1d7a944169d2ec43a305a23b2cb3f219/AndroidManifest.xml:5:5-6:19
MERGED from [com.google.android.gms:play-services-base-license:12.0.0] /home/android/.gradle/caches/transforms-1/files-1.1/play-services-base-license-12.0.0.aar/1d7a944169d2ec43a305a23b2cb3f219/AndroidManifest.xml:5:5-6:19
MERGED from [com.google.android.gms:play-services-basement-license:12.0.0] /home/android/.gradle/caches/transforms-1/files-1.1/play-services-basement-license-12.0.0.aar/b6f4ef915c6c1746289dfec84b0aca77/AndroidManifest.xml:5:5-6:19
MERGED from [com.google.android.gms:play-services-basement-license:12.0.0] /home/android/.gradle/caches/transforms-1/files-1.1/play-services-basement-license-12.0.0.aar/b6f4ef915c6c1746289dfec84b0aca77/AndroidManifest.xml:5:5-6:19
MERGED from [com.google.android.gms:play-services-tasks-license:12.0.0] /home/android/.gradle/caches/transforms-1/files-1.1/play-services-tasks-license-12.0.0.aar/1308dadd594472be044b36d96cb1d34f/AndroidManifest.xml:5:5-6:19
MERGED from [com.google.android.gms:play-services-tasks-license:12.0.0] /home/android/.gradle/caches/transforms-1/files-1.1/play-services-tasks-license-12.0.0.aar/1308dadd594472be044b36d96cb1d34f/AndroidManifest.xml:5:5-6:19
	android:supportsRtl
		ADDED from [:qrcodescanner] /home/android/AndroidStudioProjects/bluepass/qrcodescanner/build/intermediates/manifests/full/release/AndroidManifest.xml:14:9-35
	android:label
		ADDED from /home/android/AndroidStudioProjects/bluepass/app/src/main/AndroidManifest.xml:71:9-41
		ADDED from /home/android/AndroidStudioProjects/bluepass/app/src/main/AndroidManifest.xml:71:9-41
	android:icon
		ADDED from /home/android/AndroidStudioProjects/bluepass/app/src/main/AndroidManifest.xml:70:9-45
		ADDED from /home/android/AndroidStudioProjects/bluepass/app/src/main/AndroidManifest.xml:70:9-45
	android:allowBackup
		ADDED from /home/android/AndroidStudioProjects/bluepass/app/src/main/AndroidManifest.xml:69:9-35
		ADDED from /home/android/AndroidStudioProjects/bluepass/app/src/main/AndroidManifest.xml:69:9-35
	android:theme
		ADDED from /home/android/AndroidStudioProjects/bluepass/app/src/main/AndroidManifest.xml:72:9-45
		ADDED from /home/android/AndroidStudioProjects/bluepass/app/src/main/AndroidManifest.xml:72:9-45
activity#com.magtouch.bluepass.app.LauncherActivity
ADDED from /home/android/AndroidStudioProjects/bluepass/app/src/main/AndroidManifest.xml:73:9-82:20
	android:screenOrientation
		ADDED from /home/android/AndroidStudioProjects/bluepass/app/src/main/AndroidManifest.xml:75:13-49
	android:theme
		ADDED from /home/android/AndroidStudioProjects/bluepass/app/src/main/AndroidManifest.xml:76:13-49
	android:name
		ADDED from /home/android/AndroidStudioProjects/bluepass/app/src/main/AndroidManifest.xml:74:13-49
intent-filter#action:name:android.intent.action.MAIN+category:name:android.intent.category.LAUNCHER
ADDED from /home/android/AndroidStudioProjects/bluepass/app/src/main/AndroidManifest.xml:77:13-81:29
action#android.intent.action.MAIN
ADDED from /home/android/AndroidStudioProjects/bluepass/app/src/main/AndroidManifest.xml:78:17-69
	android:name
		ADDED from /home/android/AndroidStudioProjects/bluepass/app/src/main/AndroidManifest.xml:78:25-66
category#android.intent.category.LAUNCHER
ADDED from /home/android/AndroidStudioProjects/bluepass/app/src/main/AndroidManifest.xml:80:17-77
	android:name
		ADDED from /home/android/AndroidStudioProjects/bluepass/app/src/main/AndroidManifest.xml:80:27-74
activity#com.magtouch.bluepass.preference.Preferences
ADDED from /home/android/AndroidStudioProjects/bluepass/app/src/main/AndroidManifest.xml:83:9-122:20
	android:parentActivityName
		ADDED from /home/android/AndroidStudioProjects/bluepass/app/src/main/AndroidManifest.xml:85:13-62
	android:name
		ADDED from /home/android/AndroidStudioProjects/bluepass/app/src/main/AndroidManifest.xml:84:13-51
intent-filter#action:name:com.magtouch.bluepass.app.PREFS_GENERAL+category:name:android.intent.category.DEFAULT
ADDED from /home/android/AndroidStudioProjects/bluepass/app/src/main/AndroidManifest.xml:87:13-91:29
action#com.magtouch.bluepass.app.PREFS_GENERAL
ADDED from /home/android/AndroidStudioProjects/bluepass/app/src/main/AndroidManifest.xml:88:17-82
	android:name
		ADDED from /home/android/AndroidStudioProjects/bluepass/app/src/main/AndroidManifest.xml:88:25-79
category#android.intent.category.DEFAULT
ADDED from /home/android/AndroidStudioProjects/bluepass/app/src/main/AndroidManifest.xml:90:17-76
	android:name
		ADDED from /home/android/AndroidStudioProjects/bluepass/app/src/main/AndroidManifest.xml:90:27-73
intent-filter#action:name:com.magtouch.bluepass.app.PREFS_AUTHENTICATION+category:name:android.intent.category.DEFAULT
ADDED from /home/android/AndroidStudioProjects/bluepass/app/src/main/AndroidManifest.xml:92:13-96:29
action#com.magtouch.bluepass.app.PREFS_AUTHENTICATION
ADDED from /home/android/AndroidStudioProjects/bluepass/app/src/main/AndroidManifest.xml:93:17-89
	android:name
		ADDED from /home/android/AndroidStudioProjects/bluepass/app/src/main/AndroidManifest.xml:93:25-86
intent-filter#action:name:com.magtouch.bluepass.app.PREFS_AUDIO+category:name:android.intent.category.DEFAULT
ADDED from /home/android/AndroidStudioProjects/bluepass/app/src/main/AndroidManifest.xml:97:13-101:29
action#com.magtouch.bluepass.app.PREFS_AUDIO
ADDED from /home/android/AndroidStudioProjects/bluepass/app/src/main/AndroidManifest.xml:98:17-80
	android:name
		ADDED from /home/android/AndroidStudioProjects/bluepass/app/src/main/AndroidManifest.xml:98:25-77
intent-filter#action:name:com.magtouch.bluepass.app.PREFS_APPEARANCE+category:name:android.intent.category.DEFAULT
ADDED from /home/android/AndroidStudioProjects/bluepass/app/src/main/AndroidManifest.xml:102:13-106:29
action#com.magtouch.bluepass.app.PREFS_APPEARANCE
ADDED from /home/android/AndroidStudioProjects/bluepass/app/src/main/AndroidManifest.xml:103:17-85
	android:name
		ADDED from /home/android/AndroidStudioProjects/bluepass/app/src/main/AndroidManifest.xml:103:25-82
intent-filter#action:name:com.magtouch.bluepass.app.PREFS_DEVICE_SETUP+category:name:android.intent.category.DEFAULT
ADDED from /home/android/AndroidStudioProjects/bluepass/app/src/main/AndroidManifest.xml:107:13-111:29
action#com.magtouch.bluepass.app.PREFS_DEVICE_SETUP
ADDED from /home/android/AndroidStudioProjects/bluepass/app/src/main/AndroidManifest.xml:108:17-87
	android:name
		ADDED from /home/android/AndroidStudioProjects/bluepass/app/src/main/AndroidManifest.xml:108:25-84
intent-filter#action:name:com.magtouch.bluepass.app.PREFS_PANIC_BUTTON+category:name:android.intent.category.DEFAULT
ADDED from /home/android/AndroidStudioProjects/bluepass/app/src/main/AndroidManifest.xml:112:13-116:29
action#com.magtouch.bluepass.app.PREFS_PANIC_BUTTON
ADDED from /home/android/AndroidStudioProjects/bluepass/app/src/main/AndroidManifest.xml:113:17-87
	android:name
		ADDED from /home/android/AndroidStudioProjects/bluepass/app/src/main/AndroidManifest.xml:113:25-84
intent-filter#action:name:com.magtouch.bluepass.app.PREFS_ABOUT+category:name:android.intent.category.DEFAULT
ADDED from /home/android/AndroidStudioProjects/bluepass/app/src/main/AndroidManifest.xml:117:13-121:29
action#com.magtouch.bluepass.app.PREFS_ABOUT
ADDED from /home/android/AndroidStudioProjects/bluepass/app/src/main/AndroidManifest.xml:118:17-80
	android:name
		ADDED from /home/android/AndroidStudioProjects/bluepass/app/src/main/AndroidManifest.xml:118:25-77
service#com.magtouch.bluepass.service.PlumbleService
ADDED from /home/android/AndroidStudioProjects/bluepass/app/src/main/AndroidManifest.xml:124:9-126:38
	android:enabled
		ADDED from /home/android/AndroidStudioProjects/bluepass/app/src/main/AndroidManifest.xml:126:13-35
	android:name
		ADDED from /home/android/AndroidStudioProjects/bluepass/app/src/main/AndroidManifest.xml:125:13-51
activity#com.magtouch.bluepass.app.PlumbleActivity
ADDED from /home/android/AndroidStudioProjects/bluepass/app/src/main/AndroidManifest.xml:128:9-155:20
	android:parentActivityName
		ADDED from /home/android/AndroidStudioProjects/bluepass/app/src/main/AndroidManifest.xml:133:13-62
	android:label
		ADDED from /home/android/AndroidStudioProjects/bluepass/app/src/main/AndroidManifest.xml:130:13-45
	android:launchMode
		ADDED from /home/android/AndroidStudioProjects/bluepass/app/src/main/AndroidManifest.xml:131:13-43
	android:name
		ADDED from /home/android/AndroidStudioProjects/bluepass/app/src/main/AndroidManifest.xml:129:13-48
intent-filter#action:name:android.intent.action.SEARCH
ADDED from /home/android/AndroidStudioProjects/bluepass/app/src/main/AndroidManifest.xml:134:13-136:29
action#android.intent.action.SEARCH
ADDED from /home/android/AndroidStudioProjects/bluepass/app/src/main/AndroidManifest.xml:135:17-71
	android:name
		ADDED from /home/android/AndroidStudioProjects/bluepass/app/src/main/AndroidManifest.xml:135:25-68
intent-filter#action:name:com.magtouch.bluepass.app.PlumbleActivity+category:name:android.intent.category.DEFAULT
ADDED from /home/android/AndroidStudioProjects/bluepass/app/src/main/AndroidManifest.xml:137:13-141:29
action#com.magtouch.bluepass.app.PlumbleActivity
ADDED from /home/android/AndroidStudioProjects/bluepass/app/src/main/AndroidManifest.xml:138:17-84
	android:name
		ADDED from /home/android/AndroidStudioProjects/bluepass/app/src/main/AndroidManifest.xml:138:25-81
meta-data#android.app.searchable
ADDED from /home/android/AndroidStudioProjects/bluepass/app/src/main/AndroidManifest.xml:143:13-145:54
	android:resource
		ADDED from /home/android/AndroidStudioProjects/bluepass/app/src/main/AndroidManifest.xml:145:17-51
	android:name
		ADDED from /home/android/AndroidStudioProjects/bluepass/app/src/main/AndroidManifest.xml:144:17-54
intent-filter#action:name:android.intent.action.VIEW+category:name:android.intent.category.BROWSABLE+category:name:android.intent.category.DEFAULT+data:scheme:mumble
ADDED from /home/android/AndroidStudioProjects/bluepass/app/src/main/AndroidManifest.xml:147:13-154:29
action#android.intent.action.VIEW
ADDED from /home/android/AndroidStudioProjects/bluepass/app/src/main/AndroidManifest.xml:148:17-69
	android:name
		ADDED from /home/android/AndroidStudioProjects/bluepass/app/src/main/AndroidManifest.xml:148:25-66
category#android.intent.category.BROWSABLE
ADDED from /home/android/AndroidStudioProjects/bluepass/app/src/main/AndroidManifest.xml:151:17-78
	android:name
		ADDED from /home/android/AndroidStudioProjects/bluepass/app/src/main/AndroidManifest.xml:151:27-75
data
ADDED from /home/android/AndroidStudioProjects/bluepass/app/src/main/AndroidManifest.xml:153:17-49
	android:scheme
		ADDED from /home/android/AndroidStudioProjects/bluepass/app/src/main/AndroidManifest.xml:153:23-46
activity#com.magtouch.bluepass.app.AlertsFree
ADDED from /home/android/AndroidStudioProjects/bluepass/app/src/main/AndroidManifest.xml:156:9-183:20
	android:parentActivityName
		ADDED from /home/android/AndroidStudioProjects/bluepass/app/src/main/AndroidManifest.xml:160:13-58
	android:label
		ADDED from /home/android/AndroidStudioProjects/bluepass/app/src/main/AndroidManifest.xml:158:13-45
	android:launchMode
		ADDED from /home/android/AndroidStudioProjects/bluepass/app/src/main/AndroidManifest.xml:159:13-43
	android:name
		ADDED from /home/android/AndroidStudioProjects/bluepass/app/src/main/AndroidManifest.xml:157:13-43
activity#com.magtouch.bluepass.preference.CertificateSelectActivity
ADDED from /home/android/AndroidStudioProjects/bluepass/app/src/main/AndroidManifest.xml:185:9-193:20
	android:theme
		ADDED from /home/android/AndroidStudioProjects/bluepass/app/src/main/AndroidManifest.xml:187:13-69
	android:name
		ADDED from /home/android/AndroidStudioProjects/bluepass/app/src/main/AndroidManifest.xml:186:13-65
intent-filter#action:name:com.magtouch.bluepass.app.CERTIFICATE_SELECT+category:name:android.intent.category.DEFAULT
ADDED from /home/android/AndroidStudioProjects/bluepass/app/src/main/AndroidManifest.xml:188:13-192:29
action#com.magtouch.bluepass.app.CERTIFICATE_SELECT
ADDED from /home/android/AndroidStudioProjects/bluepass/app/src/main/AndroidManifest.xml:189:17-87
	android:name
		ADDED from /home/android/AndroidStudioProjects/bluepass/app/src/main/AndroidManifest.xml:189:25-84
activity#com.magtouch.bluepass.preference.CertificateImportActivity
ADDED from /home/android/AndroidStudioProjects/bluepass/app/src/main/AndroidManifest.xml:194:9-202:20
	android:theme
		ADDED from /home/android/AndroidStudioProjects/bluepass/app/src/main/AndroidManifest.xml:196:13-69
	android:name
		ADDED from /home/android/AndroidStudioProjects/bluepass/app/src/main/AndroidManifest.xml:195:13-65
intent-filter#action:name:com.magtouch.bluepass.app.CERTIFICATE_IMPORT+category:name:android.intent.category.DEFAULT
ADDED from /home/android/AndroidStudioProjects/bluepass/app/src/main/AndroidManifest.xml:197:13-201:29
action#com.magtouch.bluepass.app.CERTIFICATE_IMPORT
ADDED from /home/android/AndroidStudioProjects/bluepass/app/src/main/AndroidManifest.xml:198:17-87
	android:name
		ADDED from /home/android/AndroidStudioProjects/bluepass/app/src/main/AndroidManifest.xml:198:25-84
activity#com.magtouch.bluepass.preference.CertificateExportActivity
ADDED from /home/android/AndroidStudioProjects/bluepass/app/src/main/AndroidManifest.xml:203:9-211:20
	android:theme
		ADDED from /home/android/AndroidStudioProjects/bluepass/app/src/main/AndroidManifest.xml:205:13-69
	android:name
		ADDED from /home/android/AndroidStudioProjects/bluepass/app/src/main/AndroidManifest.xml:204:13-65
intent-filter#action:name:com.magtouch.bluepass.app.CERTIFICATE_EXPORT+category:name:android.intent.category.DEFAULT
ADDED from /home/android/AndroidStudioProjects/bluepass/app/src/main/AndroidManifest.xml:206:13-210:29
action#com.magtouch.bluepass.app.CERTIFICATE_EXPORT
ADDED from /home/android/AndroidStudioProjects/bluepass/app/src/main/AndroidManifest.xml:207:17-87
	android:name
		ADDED from /home/android/AndroidStudioProjects/bluepass/app/src/main/AndroidManifest.xml:207:25-84
activity#com.magtouch.bluepass.preference.CertificateGenerateActivity
ADDED from /home/android/AndroidStudioProjects/bluepass/app/src/main/AndroidManifest.xml:212:9-220:20
	android:theme
		ADDED from /home/android/AndroidStudioProjects/bluepass/app/src/main/AndroidManifest.xml:214:13-69
	android:name
		ADDED from /home/android/AndroidStudioProjects/bluepass/app/src/main/AndroidManifest.xml:213:13-67
intent-filter#action:name:com.magtouch.bluepass.app.CERTIFICATE_GENERATE+category:name:android.intent.category.DEFAULT
ADDED from /home/android/AndroidStudioProjects/bluepass/app/src/main/AndroidManifest.xml:215:13-219:29
action#com.magtouch.bluepass.app.CERTIFICATE_GENERATE
ADDED from /home/android/AndroidStudioProjects/bluepass/app/src/main/AndroidManifest.xml:216:17-89
	android:name
		ADDED from /home/android/AndroidStudioProjects/bluepass/app/src/main/AndroidManifest.xml:216:25-86
activity#com.magtouch.bluepass.preference.ServerCertificateClearActivity
ADDED from /home/android/AndroidStudioProjects/bluepass/app/src/main/AndroidManifest.xml:221:9-229:20
	android:theme
		ADDED from /home/android/AndroidStudioProjects/bluepass/app/src/main/AndroidManifest.xml:223:13-69
	android:name
		ADDED from /home/android/AndroidStudioProjects/bluepass/app/src/main/AndroidManifest.xml:222:13-70
intent-filter#action:name:com.magtouch.bluepass.app.CLEAR_SERVER_CERTIFICATES+category:name:android.intent.category.DEFAULT
ADDED from /home/android/AndroidStudioProjects/bluepass/app/src/main/AndroidManifest.xml:224:13-228:29
action#com.magtouch.bluepass.app.CLEAR_SERVER_CERTIFICATES
ADDED from /home/android/AndroidStudioProjects/bluepass/app/src/main/AndroidManifest.xml:225:17-94
	android:name
		ADDED from /home/android/AndroidStudioProjects/bluepass/app/src/main/AndroidManifest.xml:225:25-91
activity#com.magtouch.bluepass.app.Registration
ADDED from /home/android/AndroidStudioProjects/bluepass/app/src/main/AndroidManifest.xml:230:9-54
	android:name
		ADDED from /home/android/AndroidStudioProjects/bluepass/app/src/main/AndroidManifest.xml:230:19-51
activity#com.magtouch.bluepass.app.License
ADDED from /home/android/AndroidStudioProjects/bluepass/app/src/main/AndroidManifest.xml:231:9-49
	android:name
		ADDED from /home/android/AndroidStudioProjects/bluepass/app/src/main/AndroidManifest.xml:231:19-46
activity#com.magtouch.bluepass.app.Servers
ADDED from /home/android/AndroidStudioProjects/bluepass/app/src/main/AndroidManifest.xml:232:9-240:20
	android:parentActivityName
		ADDED from /home/android/AndroidStudioProjects/bluepass/app/src/main/AndroidManifest.xml:234:13-62
	android:name
		ADDED from /home/android/AndroidStudioProjects/bluepass/app/src/main/AndroidManifest.xml:233:13-40
intent-filter#action:name:com.magtouch.bluepass.app.Servers+category:name:android.intent.category.DEFAULT
ADDED from /home/android/AndroidStudioProjects/bluepass/app/src/main/AndroidManifest.xml:235:13-239:29
action#com.magtouch.bluepass.app.Servers
ADDED from /home/android/AndroidStudioProjects/bluepass/app/src/main/AndroidManifest.xml:236:17-76
	android:name
		ADDED from /home/android/AndroidStudioProjects/bluepass/app/src/main/AndroidManifest.xml:236:25-73
activity#com.mag_touch.alertmodule.AlertActivity
ADDED from /home/android/AndroidStudioProjects/bluepass/app/src/main/AndroidManifest.xml:241:9-243:65
MERGED from [:panicmodule] /home/android/AndroidStudioProjects/bluepass/panicmodule/build/intermediates/manifests/full/release/AndroidManifest.xml:13:9-16:59
MERGED from [:panicmodule] /home/android/AndroidStudioProjects/bluepass/panicmodule/build/intermediates/manifests/full/release/AndroidManifest.xml:13:9-16:59
	android:label
		ADDED from [:panicmodule] /home/android/AndroidStudioProjects/bluepass/panicmodule/build/intermediates/manifests/full/release/AndroidManifest.xml:15:13-57
	android:parentActivityName
		ADDED from /home/android/AndroidStudioProjects/bluepass/app/src/main/AndroidManifest.xml:243:13-62
	android:theme
		ADDED from [:panicmodule] /home/android/AndroidStudioProjects/bluepass/panicmodule/build/intermediates/manifests/full/release/AndroidManifest.xml:16:13-56
	android:name
		ADDED from /home/android/AndroidStudioProjects/bluepass/app/src/main/AndroidManifest.xml:242:13-67
activity#com.magtouch.bluepass.app.AdvancedApp
ADDED from /home/android/AndroidStudioProjects/bluepass/app/src/main/AndroidManifest.xml:244:9-53
	android:name
		ADDED from /home/android/AndroidStudioProjects/bluepass/app/src/main/AndroidManifest.xml:244:19-50
activity#com.magtouch.bluepass.app.MainScreen
ADDED from /home/android/AndroidStudioProjects/bluepass/app/src/main/AndroidManifest.xml:246:9-52
	android:name
		ADDED from /home/android/AndroidStudioProjects/bluepass/app/src/main/AndroidManifest.xml:246:19-49
activity#com.magtouch.bluepass.app.QR_Registration
ADDED from /home/android/AndroidStudioProjects/bluepass/app/src/main/AndroidManifest.xml:247:9-250:65
	android:parentActivityName
		ADDED from /home/android/AndroidStudioProjects/bluepass/app/src/main/AndroidManifest.xml:250:13-62
	android:label
		ADDED from /home/android/AndroidStudioProjects/bluepass/app/src/main/AndroidManifest.xml:249:13-68
	android:name
		ADDED from /home/android/AndroidStudioProjects/bluepass/app/src/main/AndroidManifest.xml:248:13-48
activity#com.magtouch.bluepass.app.FreeAppReg
ADDED from /home/android/AndroidStudioProjects/bluepass/app/src/main/AndroidManifest.xml:251:9-255:14
	android:parentActivityName
		ADDED from /home/android/AndroidStudioProjects/bluepass/app/src/main/AndroidManifest.xml:254:13-62
	android:label
		ADDED from /home/android/AndroidStudioProjects/bluepass/app/src/main/AndroidManifest.xml:253:13-68
	android:name
		ADDED from /home/android/AndroidStudioProjects/bluepass/app/src/main/AndroidManifest.xml:252:13-43
activity#com.mag_touch.alertmodule.MainActivity
ADDED from /home/android/AndroidStudioProjects/bluepass/app/src/main/AndroidManifest.xml:257:9-260:65
MERGED from [:panicmodule] /home/android/AndroidStudioProjects/bluepass/panicmodule/build/intermediates/manifests/full/release/AndroidManifest.xml:12:9-75
MERGED from [:panicmodule] /home/android/AndroidStudioProjects/bluepass/panicmodule/build/intermediates/manifests/full/release/AndroidManifest.xml:12:9-75
	android:parentActivityName
		ADDED from /home/android/AndroidStudioProjects/bluepass/app/src/main/AndroidManifest.xml:260:13-62
	android:label
		ADDED from /home/android/AndroidStudioProjects/bluepass/app/src/main/AndroidManifest.xml:259:13-68
	android:name
		ADDED from /home/android/AndroidStudioProjects/bluepass/app/src/main/AndroidManifest.xml:258:13-66
uses-sdk
INJECTED from /home/android/AndroidStudioProjects/bluepass/app/src/main/AndroidManifest.xml reason: use-sdk injection requested
INJECTED from /home/android/AndroidStudioProjects/bluepass/app/src/main/AndroidManifest.xml
INJECTED from /home/android/AndroidStudioProjects/bluepass/app/src/main/AndroidManifest.xml
MERGED from [:libraries:Jumble] /home/android/AndroidStudioProjects/bluepass/libraries/Jumble/build/intermediates/manifests/full/release/AndroidManifest.xml:23:5-25:41
MERGED from [:libraries:Jumble] /home/android/AndroidStudioProjects/bluepass/libraries/Jumble/build/intermediates/manifests/full/release/AndroidManifest.xml:23:5-25:41
MERGED from [:qrcodescanner] /home/android/AndroidStudioProjects/bluepass/qrcodescanner/build/intermediates/manifests/full/release/AndroidManifest.xml:7:5-9:41
MERGED from [:qrcodescanner] /home/android/AndroidStudioProjects/bluepass/qrcodescanner/build/intermediates/manifests/full/release/AndroidManifest.xml:7:5-9:41
MERGED from [:panicmodule] /home/android/AndroidStudioProjects/bluepass/panicmodule/build/intermediates/manifests/full/release/AndroidManifest.xml:7:5-9:41
MERGED from [:panicmodule] /home/android/AndroidStudioProjects/bluepass/panicmodule/build/intermediates/manifests/full/release/AndroidManifest.xml:7:5-9:41
MERGED from [com.android.support:multidex:1.0.2] /home/android/.gradle/caches/transforms-1/files-1.1/multidex-1.0.2.aar/4e31cc8609217b0a4b0d2c8968969a23/AndroidManifest.xml:20:5-43
MERGED from [com.android.support:multidex:1.0.2] /home/android/.gradle/caches/transforms-1/files-1.1/multidex-1.0.2.aar/4e31cc8609217b0a4b0d2c8968969a23/AndroidManifest.xml:20:5-43
MERGED from [:noobcameraflash] /home/android/AndroidStudioProjects/bluepass/noobcameraflash/build/intermediates/manifests/full/release/AndroidManifest.xml:7:5-9:41
MERGED from [:noobcameraflash] /home/android/AndroidStudioProjects/bluepass/noobcameraflash/build/intermediates/manifests/full/release/AndroidManifest.xml:7:5-9:41
MERGED from [com.android.support:design:26.1.0] /home/android/.gradle/caches/transforms-1/files-1.1/design-26.1.0.aar/a2aafce8f7025362fb22c0eddf72d073/AndroidManifest.xml:21:5-23:62
MERGED from [com.android.support:design:26.1.0] /home/android/.gradle/caches/transforms-1/files-1.1/design-26.1.0.aar/a2aafce8f7025362fb22c0eddf72d073/AndroidManifest.xml:21:5-23:62
MERGED from [com.github.Abhi347:LumberJack:0.0.3] /home/android/.gradle/caches/transforms-1/files-1.1/LumberJack-0.0.3.aar/66e6f9b78339e0f73d8216c6bce17e58/AndroidManifest.xml:7:5-9:41
MERGED from [com.github.Abhi347:LumberJack:0.0.3] /home/android/.gradle/caches/transforms-1/files-1.1/LumberJack-0.0.3.aar/66e6f9b78339e0f73d8216c6bce17e58/AndroidManifest.xml:7:5-9:41
MERGED from [com.android.support:appcompat-v7:26.1.0] /home/android/.gradle/caches/transforms-1/files-1.1/appcompat-v7-26.1.0.aar/43b7c7dcc619cf125407e6931ff97bb5/AndroidManifest.xml:21:5-23:78
MERGED from [com.android.support:appcompat-v7:26.1.0] /home/android/.gradle/caches/transforms-1/files-1.1/appcompat-v7-26.1.0.aar/43b7c7dcc619cf125407e6931ff97bb5/AndroidManifest.xml:21:5-23:78
MERGED from [com.android.support:cardview-v7:26.1.0] /home/android/.gradle/caches/transforms-1/files-1.1/cardview-v7-26.1.0.aar/73a6d0abfe92765a79f80e6771a4b814/AndroidManifest.xml:20:5-44
MERGED from [com.android.support:cardview-v7:26.1.0] /home/android/.gradle/caches/transforms-1/files-1.1/cardview-v7-26.1.0.aar/73a6d0abfe92765a79f80e6771a4b814/AndroidManifest.xml:20:5-44
MERGED from [com.android.support:palette-v7:26.1.0] /home/android/.gradle/caches/transforms-1/files-1.1/palette-v7-26.1.0.aar/68d73ee8c435b5cd01b21ecacd07b351/AndroidManifest.xml:20:5-44
MERGED from [com.android.support:palette-v7:26.1.0] /home/android/.gradle/caches/transforms-1/files-1.1/palette-v7-26.1.0.aar/68d73ee8c435b5cd01b21ecacd07b351/AndroidManifest.xml:20:5-44
MERGED from [com.android.support:recyclerview-v7:26.1.0] /home/android/.gradle/caches/transforms-1/files-1.1/recyclerview-v7-26.1.0.aar/056a83d7d76138ad6e2efd32da4e7233/AndroidManifest.xml:20:5-44
MERGED from [com.android.support:recyclerview-v7:26.1.0] /home/android/.gradle/caches/transforms-1/files-1.1/recyclerview-v7-26.1.0.aar/056a83d7d76138ad6e2efd32da4e7233/AndroidManifest.xml:20:5-44
MERGED from [com.android.volley:volley:1.0.0] /home/android/.gradle/caches/transforms-1/files-1.1/volley-1.0.0.aar/70217509e9abf144fbe4424ed12721a0/AndroidManifest.xml:7:5-43
MERGED from [com.android.volley:volley:1.0.0] /home/android/.gradle/caches/transforms-1/files-1.1/volley-1.0.0.aar/70217509e9abf144fbe4424ed12721a0/AndroidManifest.xml:7:5-43
MERGED from [com.android.support.constraint:constraint-layout:1.0.2] /home/android/.gradle/caches/transforms-1/files-1.1/constraint-layout-1.0.2.aar/2ddc8570c9d23d8807d3cf353b26b73e/AndroidManifest.xml:5:5-7:41
MERGED from [com.android.support.constraint:constraint-layout:1.0.2] /home/android/.gradle/caches/transforms-1/files-1.1/constraint-layout-1.0.2.aar/2ddc8570c9d23d8807d3cf353b26b73e/AndroidManifest.xml:5:5-7:41
MERGED from [com.google.android.gms:play-services-plus:12.0.0] /home/android/.gradle/caches/transforms-1/files-1.1/play-services-plus-12.0.0.aar/1e4dccdc035d9a8d3abdd6a73a92c6ec/AndroidManifest.xml:20:5-44
MERGED from [com.google.android.gms:play-services-plus:12.0.0] /home/android/.gradle/caches/transforms-1/files-1.1/play-services-plus-12.0.0.aar/1e4dccdc035d9a8d3abdd6a73a92c6ec/AndroidManifest.xml:20:5-44
MERGED from [com.android.support:transition:26.1.0] /home/android/.gradle/caches/transforms-1/files-1.1/transition-26.1.0.aar/2e1f32dcf8cb49e15eaf68d3ac97cf40/AndroidManifest.xml:20:5-44
MERGED from [com.android.support:transition:26.1.0] /home/android/.gradle/caches/transforms-1/files-1.1/transition-26.1.0.aar/2e1f32dcf8cb49e15eaf68d3ac97cf40/AndroidManifest.xml:20:5-44
MERGED from [com.google.android.gms:play-services-base:12.0.0] /home/android/.gradle/caches/transforms-1/files-1.1/play-services-base-12.0.0.aar/dcd948de834e1f60d4fc72ec020caf46/AndroidManifest.xml:20:5-44
MERGED from [com.google.android.gms:play-services-base:12.0.0] /home/android/.gradle/caches/transforms-1/files-1.1/play-services-base-12.0.0.aar/dcd948de834e1f60d4fc72ec020caf46/AndroidManifest.xml:20:5-44
MERGED from [com.google.android.gms:play-services-tasks:12.0.0] /home/android/.gradle/caches/transforms-1/files-1.1/play-services-tasks-12.0.0.aar/97e28ddb8b76ac7293ba2c44b65ffb0a/AndroidManifest.xml:5:5-44
MERGED from [com.google.android.gms:play-services-tasks:12.0.0] /home/android/.gradle/caches/transforms-1/files-1.1/play-services-tasks-12.0.0.aar/97e28ddb8b76ac7293ba2c44b65ffb0a/AndroidManifest.xml:5:5-44
MERGED from [com.google.android.gms:play-services-basement:12.0.0] /home/android/.gradle/caches/transforms-1/files-1.1/play-services-basement-12.0.0.aar/b38055671a4aadb825853645bd4c5c28/AndroidManifest.xml:20:5-44
MERGED from [com.google.android.gms:play-services-basement:12.0.0] /home/android/.gradle/caches/transforms-1/files-1.1/play-services-basement-12.0.0.aar/b38055671a4aadb825853645bd4c5c28/AndroidManifest.xml:20:5-44
MERGED from [com.android.support:support-v4:26.1.0] /home/android/.gradle/caches/transforms-1/files-1.1/support-v4-26.1.0.aar/06cf890f15021b61d6433b58ecb08e7f/AndroidManifest.xml:21:5-23:54
MERGED from [com.android.support:support-v4:26.1.0] /home/android/.gradle/caches/transforms-1/files-1.1/support-v4-26.1.0.aar/06cf890f15021b61d6433b58ecb08e7f/AndroidManifest.xml:21:5-23:54
MERGED from [com.android.support:support-fragment:26.1.0] /home/android/.gradle/caches/transforms-1/files-1.1/support-fragment-26.1.0.aar/aa0da0209e369b85e9b9024b72ba649a/AndroidManifest.xml:21:5-23:60
MERGED from [com.android.support:support-fragment:26.1.0] /home/android/.gradle/caches/transforms-1/files-1.1/support-fragment-26.1.0.aar/aa0da0209e369b85e9b9024b72ba649a/AndroidManifest.xml:21:5-23:60
MERGED from [com.android.support:support-core-utils:26.1.0] /home/android/.gradle/caches/transforms-1/files-1.1/support-core-utils-26.1.0.aar/42ab4a0c7211275ea510a830cea7d6cd/AndroidManifest.xml:21:5-23:61
MERGED from [com.android.support:support-core-utils:26.1.0] /home/android/.gradle/caches/transforms-1/files-1.1/support-core-utils-26.1.0.aar/42ab4a0c7211275ea510a830cea7d6cd/AndroidManifest.xml:21:5-23:61
MERGED from [com.android.support:animated-vector-drawable:26.1.0] /home/android/.gradle/caches/transforms-1/files-1.1/animated-vector-drawable-26.1.0.aar/4de28053eff3624078796ada9660b56f/AndroidManifest.xml:20:5-44
MERGED from [com.android.support:animated-vector-drawable:26.1.0] /home/android/.gradle/caches/transforms-1/files-1.1/animated-vector-drawable-26.1.0.aar/4de28053eff3624078796ada9660b56f/AndroidManifest.xml:20:5-44
MERGED from [com.android.support:support-core-ui:26.1.0] /home/android/.gradle/caches/transforms-1/files-1.1/support-core-ui-26.1.0.aar/7fc2a1c37360753759d833aa11eaafc3/AndroidManifest.xml:21:5-23:58
MERGED from [com.android.support:support-core-ui:26.1.0] /home/android/.gradle/caches/transforms-1/files-1.1/support-core-ui-26.1.0.aar/7fc2a1c37360753759d833aa11eaafc3/AndroidManifest.xml:21:5-23:58
MERGED from [com.android.support:support-media-compat:26.1.0] /home/android/.gradle/caches/transforms-1/files-1.1/support-media-compat-26.1.0.aar/d7b2c9f6c47b8f08ac2e73df43f52894/AndroidManifest.xml:21:5-23:63
MERGED from [com.android.support:support-media-compat:26.1.0] /home/android/.gradle/caches/transforms-1/files-1.1/support-media-compat-26.1.0.aar/d7b2c9f6c47b8f08ac2e73df43f52894/AndroidManifest.xml:21:5-23:63
MERGED from [com.android.support:support-vector-drawable:26.1.0] /home/android/.gradle/caches/transforms-1/files-1.1/support-vector-drawable-26.1.0.aar/d8176108fb7d9e26d36a39af3cfeef56/AndroidManifest.xml:20:5-44
MERGED from [com.android.support:support-vector-drawable:26.1.0] /home/android/.gradle/caches/transforms-1/files-1.1/support-vector-drawable-26.1.0.aar/d8176108fb7d9e26d36a39af3cfeef56/AndroidManifest.xml:20:5-44
MERGED from [com.android.support:support-compat:26.1.0] /home/android/.gradle/caches/transforms-1/files-1.1/support-compat-26.1.0.aar/f9d42748f382499e0760ed1ae4578d8f/AndroidManifest.xml:21:5-23:58
MERGED from [com.android.support:support-compat:26.1.0] /home/android/.gradle/caches/transforms-1/files-1.1/support-compat-26.1.0.aar/f9d42748f382499e0760ed1ae4578d8f/AndroidManifest.xml:21:5-23:58
MERGED from [android.arch.lifecycle:runtime:1.0.0] /home/android/.gradle/caches/transforms-1/files-1.1/runtime-1.0.0.aar/b408ee810f04b3bad259b887fb92a3e0/AndroidManifest.xml:20:5-22:41
MERGED from [android.arch.lifecycle:runtime:1.0.0] /home/android/.gradle/caches/transforms-1/files-1.1/runtime-1.0.0.aar/b408ee810f04b3bad259b887fb92a3e0/AndroidManifest.xml:20:5-22:41
INJECTED from /home/android/AndroidStudioProjects/bluepass/app/src/free/AndroidManifest.xml
INJECTED from /home/android/AndroidStudioProjects/bluepass/app/src/free/AndroidManifest.xml
	tools:overrideLibrary
		ADDED from [com.android.support:design:26.1.0] /home/android/.gradle/caches/transforms-1/files-1.1/design-26.1.0.aar/a2aafce8f7025362fb22c0eddf72d073/AndroidManifest.xml:23:9-59
	android:targetSdkVersion
		INJECTED from /home/android/AndroidStudioProjects/bluepass/app/src/main/AndroidManifest.xml
		INJECTED from /home/android/AndroidStudioProjects/bluepass/app/src/free/AndroidManifest.xml
	android:minSdkVersion
		INJECTED from /home/android/AndroidStudioProjects/bluepass/app/src/main/AndroidManifest.xml
		INJECTED from /home/android/AndroidStudioProjects/bluepass/app/src/free/AndroidManifest.xml
provider#com.magtouch.bluepass.channel.ChannelSearchProvider
ADDED from /home/android/AndroidStudioProjects/bluepass/app/src/free/AndroidManifest.xml:23:9-26:40
	android:authorities
		ADDED from /home/android/AndroidStudioProjects/bluepass/app/src/free/AndroidManifest.xml:25:13-91
	android:exported
		ADDED from /home/android/AndroidStudioProjects/bluepass/app/src/free/AndroidManifest.xml:26:13-37
	android:name
		ADDED from /home/android/AndroidStudioProjects/bluepass/app/src/free/AndroidManifest.xml:24:13-79
service#com.magtouch.jumble.JumbleService
ADDED from [:libraries:Jumble] /home/android/AndroidStudioProjects/bluepass/libraries/Jumble/build/intermediates/manifests/full/release/AndroidManifest.xml:31:9-38:19
	android:exported
		ADDED from [:libraries:Jumble] /home/android/AndroidStudioProjects/bluepass/libraries/Jumble/build/intermediates/manifests/full/release/AndroidManifest.xml:33:13-36
	android:name
		ADDED from [:libraries:Jumble] /home/android/AndroidStudioProjects/bluepass/libraries/Jumble/build/intermediates/manifests/full/release/AndroidManifest.xml:32:13-61
intent-filter#action:name:com.magtouch.jumble.ACTION_CONNECT+action:name:com.magtouch.jumble.ACTION_DISCONNECT
ADDED from [:libraries:Jumble] /home/android/AndroidStudioProjects/bluepass/libraries/Jumble/build/intermediates/manifests/full/release/AndroidManifest.xml:34:13-37:29
action#com.magtouch.jumble.ACTION_CONNECT
ADDED from [:libraries:Jumble] /home/android/AndroidStudioProjects/bluepass/libraries/Jumble/build/intermediates/manifests/full/release/AndroidManifest.xml:35:17-77
	android:name
		ADDED from [:libraries:Jumble] /home/android/AndroidStudioProjects/bluepass/libraries/Jumble/build/intermediates/manifests/full/release/AndroidManifest.xml:35:25-74
action#com.magtouch.jumble.ACTION_DISCONNECT
ADDED from [:libraries:Jumble] /home/android/AndroidStudioProjects/bluepass/libraries/Jumble/build/intermediates/manifests/full/release/AndroidManifest.xml:36:17-80
	android:name
		ADDED from [:libraries:Jumble] /home/android/AndroidStudioProjects/bluepass/libraries/Jumble/build/intermediates/manifests/full/release/AndroidManifest.xml:36:25-77
activity#com.blikoon.qrcodescanner.QrCodeActivity
ADDED from [:qrcodescanner] /home/android/AndroidStudioProjects/bluepass/qrcodescanner/build/intermediates/manifests/full/release/AndroidManifest.xml:15:9-16:20
	android:name
		ADDED from [:qrcodescanner] /home/android/AndroidStudioProjects/bluepass/qrcodescanner/build/intermediates/manifests/full/release/AndroidManifest.xml:15:19-74
permission#android.permission.FLASHLIGHT
ADDED from [:noobcameraflash] /home/android/AndroidStudioProjects/bluepass/noobcameraflash/build/intermediates/manifests/full/release/AndroidManifest.xml:11:5-16:44
	android:label
		ADDED from [:noobcameraflash] /home/android/AndroidStudioProjects/bluepass/noobcameraflash/build/intermediates/manifests/full/release/AndroidManifest.xml:14:9-52
	android:protectionLevel
		ADDED from [:noobcameraflash] /home/android/AndroidStudioProjects/bluepass/noobcameraflash/build/intermediates/manifests/full/release/AndroidManifest.xml:16:9-41
	android:permissionGroup
		ADDED from [:noobcameraflash] /home/android/AndroidStudioProjects/bluepass/noobcameraflash/build/intermediates/manifests/full/release/AndroidManifest.xml:15:9-77
	android:description
		ADDED from [:noobcameraflash] /home/android/AndroidStudioProjects/bluepass/noobcameraflash/build/intermediates/manifests/full/release/AndroidManifest.xml:13:9-59
	android:name
		ADDED from [:noobcameraflash] /home/android/AndroidStudioProjects/bluepass/noobcameraflash/build/intermediates/manifests/full/release/AndroidManifest.xml:12:9-53
meta-data#android.support.VERSION
ADDED from [com.android.support:design:26.1.0] /home/android/.gradle/caches/transforms-1/files-1.1/design-26.1.0.aar/a2aafce8f7025362fb22c0eddf72d073/AndroidManifest.xml:26:9-28:38
MERGED from [com.android.support:appcompat-v7:26.1.0] /home/android/.gradle/caches/transforms-1/files-1.1/appcompat-v7-26.1.0.aar/43b7c7dcc619cf125407e6931ff97bb5/AndroidManifest.xml:26:9-28:38
MERGED from [com.android.support:appcompat-v7:26.1.0] /home/android/.gradle/caches/transforms-1/files-1.1/appcompat-v7-26.1.0.aar/43b7c7dcc619cf125407e6931ff97bb5/AndroidManifest.xml:26:9-28:38
MERGED from [com.android.support:cardview-v7:26.1.0] /home/android/.gradle/caches/transforms-1/files-1.1/cardview-v7-26.1.0.aar/73a6d0abfe92765a79f80e6771a4b814/AndroidManifest.xml:23:9-25:38
MERGED from [com.android.support:cardview-v7:26.1.0] /home/android/.gradle/caches/transforms-1/files-1.1/cardview-v7-26.1.0.aar/73a6d0abfe92765a79f80e6771a4b814/AndroidManifest.xml:23:9-25:38
MERGED from [com.android.support:palette-v7:26.1.0] /home/android/.gradle/caches/transforms-1/files-1.1/palette-v7-26.1.0.aar/68d73ee8c435b5cd01b21ecacd07b351/AndroidManifest.xml:23:9-25:38
MERGED from [com.android.support:palette-v7:26.1.0] /home/android/.gradle/caches/transforms-1/files-1.1/palette-v7-26.1.0.aar/68d73ee8c435b5cd01b21ecacd07b351/AndroidManifest.xml:23:9-25:38
MERGED from [com.android.support:recyclerview-v7:26.1.0] /home/android/.gradle/caches/transforms-1/files-1.1/recyclerview-v7-26.1.0.aar/056a83d7d76138ad6e2efd32da4e7233/AndroidManifest.xml:23:9-25:38
MERGED from [com.android.support:recyclerview-v7:26.1.0] /home/android/.gradle/caches/transforms-1/files-1.1/recyclerview-v7-26.1.0.aar/056a83d7d76138ad6e2efd32da4e7233/AndroidManifest.xml:23:9-25:38
MERGED from [com.android.support:transition:26.1.0] /home/android/.gradle/caches/transforms-1/files-1.1/transition-26.1.0.aar/2e1f32dcf8cb49e15eaf68d3ac97cf40/AndroidManifest.xml:23:9-25:38
MERGED from [com.android.support:transition:26.1.0] /home/android/.gradle/caches/transforms-1/files-1.1/transition-26.1.0.aar/2e1f32dcf8cb49e15eaf68d3ac97cf40/AndroidManifest.xml:23:9-25:38
MERGED from [com.android.support:support-v4:26.1.0] /home/android/.gradle/caches/transforms-1/files-1.1/support-v4-26.1.0.aar/06cf890f15021b61d6433b58ecb08e7f/AndroidManifest.xml:26:9-28:38
MERGED from [com.android.support:support-v4:26.1.0] /home/android/.gradle/caches/transforms-1/files-1.1/support-v4-26.1.0.aar/06cf890f15021b61d6433b58ecb08e7f/AndroidManifest.xml:26:9-28:38
MERGED from [com.android.support:support-fragment:26.1.0] /home/android/.gradle/caches/transforms-1/files-1.1/support-fragment-26.1.0.aar/aa0da0209e369b85e9b9024b72ba649a/AndroidManifest.xml:26:9-28:38
MERGED from [com.android.support:support-fragment:26.1.0] /home/android/.gradle/caches/transforms-1/files-1.1/support-fragment-26.1.0.aar/aa0da0209e369b85e9b9024b72ba649a/AndroidManifest.xml:26:9-28:38
MERGED from [com.android.support:support-core-utils:26.1.0] /home/android/.gradle/caches/transforms-1/files-1.1/support-core-utils-26.1.0.aar/42ab4a0c7211275ea510a830cea7d6cd/AndroidManifest.xml:26:9-28:38
MERGED from [com.android.support:support-core-utils:26.1.0] /home/android/.gradle/caches/transforms-1/files-1.1/support-core-utils-26.1.0.aar/42ab4a0c7211275ea510a830cea7d6cd/AndroidManifest.xml:26:9-28:38
MERGED from [com.android.support:animated-vector-drawable:26.1.0] /home/android/.gradle/caches/transforms-1/files-1.1/animated-vector-drawable-26.1.0.aar/4de28053eff3624078796ada9660b56f/AndroidManifest.xml:23:9-25:38
MERGED from [com.android.support:animated-vector-drawable:26.1.0] /home/android/.gradle/caches/transforms-1/files-1.1/animated-vector-drawable-26.1.0.aar/4de28053eff3624078796ada9660b56f/AndroidManifest.xml:23:9-25:38
MERGED from [com.android.support:support-core-ui:26.1.0] /home/android/.gradle/caches/transforms-1/files-1.1/support-core-ui-26.1.0.aar/7fc2a1c37360753759d833aa11eaafc3/AndroidManifest.xml:26:9-28:38
MERGED from [com.android.support:support-core-ui:26.1.0] /home/android/.gradle/caches/transforms-1/files-1.1/support-core-ui-26.1.0.aar/7fc2a1c37360753759d833aa11eaafc3/AndroidManifest.xml:26:9-28:38
MERGED from [com.android.support:support-media-compat:26.1.0] /home/android/.gradle/caches/transforms-1/files-1.1/support-media-compat-26.1.0.aar/d7b2c9f6c47b8f08ac2e73df43f52894/AndroidManifest.xml:26:9-28:38
MERGED from [com.android.support:support-media-compat:26.1.0] /home/android/.gradle/caches/transforms-1/files-1.1/support-media-compat-26.1.0.aar/d7b2c9f6c47b8f08ac2e73df43f52894/AndroidManifest.xml:26:9-28:38
MERGED from [com.android.support:support-vector-drawable:26.1.0] /home/android/.gradle/caches/transforms-1/files-1.1/support-vector-drawable-26.1.0.aar/d8176108fb7d9e26d36a39af3cfeef56/AndroidManifest.xml:23:9-25:38
MERGED from [com.android.support:support-vector-drawable:26.1.0] /home/android/.gradle/caches/transforms-1/files-1.1/support-vector-drawable-26.1.0.aar/d8176108fb7d9e26d36a39af3cfeef56/AndroidManifest.xml:23:9-25:38
MERGED from [com.android.support:support-compat:26.1.0] /home/android/.gradle/caches/transforms-1/files-1.1/support-compat-26.1.0.aar/f9d42748f382499e0760ed1ae4578d8f/AndroidManifest.xml:26:9-28:38
MERGED from [com.android.support:support-compat:26.1.0] /home/android/.gradle/caches/transforms-1/files-1.1/support-compat-26.1.0.aar/f9d42748f382499e0760ed1ae4578d8f/AndroidManifest.xml:26:9-28:38
	android:value
		ADDED from [com.android.support:design:26.1.0] /home/android/.gradle/caches/transforms-1/files-1.1/design-26.1.0.aar/a2aafce8f7025362fb22c0eddf72d073/AndroidManifest.xml:28:13-35
	android:name
		ADDED from [com.android.support:design:26.1.0] /home/android/.gradle/caches/transforms-1/files-1.1/design-26.1.0.aar/a2aafce8f7025362fb22c0eddf72d073/AndroidManifest.xml:27:13-51
activity#com.google.android.gms.common.api.GoogleApiActivity
ADDED from [com.google.android.gms:play-services-base:12.0.0] /home/android/.gradle/caches/transforms-1/files-1.1/play-services-base-12.0.0.aar/dcd948de834e1f60d4fc72ec020caf46/AndroidManifest.xml:23:9-26:75
	android:exported
		ADDED from [com.google.android.gms:play-services-base:12.0.0] /home/android/.gradle/caches/transforms-1/files-1.1/play-services-base-12.0.0.aar/dcd948de834e1f60d4fc72ec020caf46/AndroidManifest.xml:25:13-37
	android:theme
		ADDED from [com.google.android.gms:play-services-base:12.0.0] /home/android/.gradle/caches/transforms-1/files-1.1/play-services-base-12.0.0.aar/dcd948de834e1f60d4fc72ec020caf46/AndroidManifest.xml:26:13-72
	android:name
		ADDED from [com.google.android.gms:play-services-base:12.0.0] /home/android/.gradle/caches/transforms-1/files-1.1/play-services-base-12.0.0.aar/dcd948de834e1f60d4fc72ec020caf46/AndroidManifest.xml:24:13-79
meta-data#com.google.android.gms.version
ADDED from [com.google.android.gms:play-services-basement:12.0.0] /home/android/.gradle/caches/transforms-1/files-1.1/play-services-basement-12.0.0.aar/b38055671a4aadb825853645bd4c5c28/AndroidManifest.xml:23:9-25:69
	android:value
		ADDED from [com.google.android.gms:play-services-basement:12.0.0] /home/android/.gradle/caches/transforms-1/files-1.1/play-services-basement-12.0.0.aar/b38055671a4aadb825853645bd4c5c28/AndroidManifest.xml:25:13-66
	android:name
		ADDED from [com.google.android.gms:play-services-basement:12.0.0] /home/android/.gradle/caches/transforms-1/files-1.1/play-services-basement-12.0.0.aar/b38055671a4aadb825853645bd4c5c28/AndroidManifest.xml:24:13-58
meta-data#android.arch.lifecycle.VERSION
ADDED from [android.arch.lifecycle:runtime:1.0.0] /home/android/.gradle/caches/transforms-1/files-1.1/runtime-1.0.0.aar/b408ee810f04b3bad259b887fb92a3e0/AndroidManifest.xml:25:9-27:47
	android:value
		ADDED from [android.arch.lifecycle:runtime:1.0.0] /home/android/.gradle/caches/transforms-1/files-1.1/runtime-1.0.0.aar/b408ee810f04b3bad259b887fb92a3e0/AndroidManifest.xml:27:13-44
	android:name
		ADDED from [android.arch.lifecycle:runtime:1.0.0] /home/android/.gradle/caches/transforms-1/files-1.1/runtime-1.0.0.aar/b408ee810f04b3bad259b887fb92a3e0/AndroidManifest.xml:26:13-58
